('C:\\Users\\David '
 'Sanguano\\Documents\\pokedex-flet\\build\\pokedex\\pokedex.pkg',
 {'BINARY': True,
  'DATA': True,
  'EXECUTABLE': True,
  'EXTENSION': True,
  'PYMODULE': True,
  'PYSOURCE': True,
  'PYZ': False,
  'SPLASH': True,
  'SYMLINK': False},
 [('pyi-contents-directory _internal', '', 'OPTION'),
  ('PYZ-00.pyz',
   'C:\\Users\\David '
   'Sanguano\\Documents\\pokedex-flet\\build\\pokedex\\PYZ-00.pyz',
   'PYZ'),
  ('struct',
   'C:\\Users\\David '
   'Sanguano\\Documents\\pokedex-flet\\build\\pokedex\\localpycs\\struct.pyc',
   'PYMODULE'),
  ('pyimod01_archive',
   'C:\\Users\\David '
   'Sanguano\\Documents\\pokedex-flet\\build\\pokedex\\localpycs\\pyimod01_archive.pyc',
   'PYMODULE'),
  ('pyimod02_importers',
   'C:\\Users\\David '
   'Sanguano\\Documents\\pokedex-flet\\build\\pokedex\\localpycs\\pyimod02_importers.pyc',
   'PYMODULE'),
  ('pyimod03_ctypes',
   'C:\\Users\\David '
   'Sanguano\\Documents\\pokedex-flet\\build\\pokedex\\localpycs\\pyimod03_ctypes.pyc',
   'PYMODULE'),
  ('pyimod04_pywin32',
   'C:\\Users\\David '
   'Sanguano\\Documents\\pokedex-flet\\build\\pokedex\\localpycs\\pyimod04_pywin32.pyc',
   'PYMODULE'),
  ('pyiboot01_bootstrap',
   'C:\\Users\\David '
   'Sanguano\\Documents\\pokedex-flet\\venv\\Lib\\site-packages\\PyInstaller\\loader\\pyiboot01_bootstrap.py',
   'PYSOURCE'),
  ('pyi_rth_inspect',
   'C:\\Users\\David '
   'Sanguano\\Documents\\pokedex-flet\\venv\\Lib\\site-packages\\PyInstaller\\hooks\\rthooks\\pyi_rth_inspect.py',
   'PYSOURCE'),
  ('pyi_rth_pkgutil',
   'C:\\Users\\David '
   'Sanguano\\Documents\\pokedex-flet\\venv\\Lib\\site-packages\\PyInstaller\\hooks\\rthooks\\pyi_rth_pkgutil.py',
   'PYSOURCE'),
  ('pyi_rth_multiprocessing',
   'C:\\Users\\David '
   'Sanguano\\Documents\\pokedex-flet\\venv\\Lib\\site-packages\\PyInstaller\\hooks\\rthooks\\pyi_rth_multiprocessing.py',
   'PYSOURCE'),
  ('pyi_rth_localhost_fletd',
   'C:\\Users\\David '
   'Sanguano\\Documents\\pokedex-flet\\venv\\Lib\\site-packages\\flet\\__pyinstaller\\rthooks\\pyi_rth_localhost_fletd.py',
   'PYSOURCE'),
  ('pyi_rth_pkgres',
   'C:\\Users\\David '
   'Sanguano\\Documents\\pokedex-flet\\venv\\Lib\\site-packages\\PyInstaller\\hooks\\rthooks\\pyi_rth_pkgres.py',
   'PYSOURCE'),
  ('pyi_rth_win32comgenpy',
   'C:\\Users\\David '
   'Sanguano\\Documents\\pokedex-flet\\venv\\Lib\\site-packages\\PyInstaller\\hooks\\rthooks\\pyi_rth_win32comgenpy.py',
   'PYSOURCE'),
  ('pyi_rth_pywintypes',
   'C:\\Users\\David '
   'Sanguano\\Documents\\pokedex-flet\\venv\\Lib\\site-packages\\_pyinstaller_hooks_contrib\\hooks\\rthooks\\pyi_rth_pywintypes.py',
   'PYSOURCE'),
  ('pyi_rth_pythoncom',
   'C:\\Users\\David '
   'Sanguano\\Documents\\pokedex-flet\\venv\\Lib\\site-packages\\_pyinstaller_hooks_contrib\\hooks\\rthooks\\pyi_rth_pythoncom.py',
   'PYSOURCE'),
  ('main',
   'C:\\Users\\David Sanguano\\Documents\\pokedex-flet\\main.py',
   'PYSOURCE'),
  ('flet\\bin\\flet\\audioplayers_windows_plugin.dll',
   'C:\\Users\\David '
   'Sanguano\\AppData\\Local\\Temp\\db6dd598-db2c-4bbb-8f19-38e0acbbc701\\flet\\audioplayers_windows_plugin.dll',
   'BINARY'),
  ('flet\\bin\\flet\\vcruntime140_1.dll',
   'C:\\Users\\David '
   'Sanguano\\AppData\\Local\\Temp\\db6dd598-db2c-4bbb-8f19-38e0acbbc701\\flet\\vcruntime140_1.dll',
   'BINARY'),
  ('flet\\bin\\flet\\url_launcher_windows_plugin.dll',
   'C:\\Users\\David '
   'Sanguano\\AppData\\Local\\Temp\\db6dd598-db2c-4bbb-8f19-38e0acbbc701\\flet\\url_launcher_windows_plugin.dll',
   'BINARY'),
  ('flet\\bin\\flet\\vcruntime140.dll',
   'C:\\Users\\David '
   'Sanguano\\AppData\\Local\\Temp\\db6dd598-db2c-4bbb-8f19-38e0acbbc701\\flet\\vcruntime140.dll',
   'BINARY'),
  ('flet\\bin\\flet\\msvcp140.dll',
   'C:\\Users\\David '
   'Sanguano\\AppData\\Local\\Temp\\db6dd598-db2c-4bbb-8f19-38e0acbbc701\\flet\\msvcp140.dll',
   'BINARY'),
  ('flet\\bin\\flet\\flet.exe',
   'C:\\Users\\David '
   'Sanguano\\AppData\\Local\\Temp\\db6dd598-db2c-4bbb-8f19-38e0acbbc701\\flet\\flet.exe',
   'BINARY'),
  ('flet\\bin\\flet\\window_manager_plugin.dll',
   'C:\\Users\\David '
   'Sanguano\\AppData\\Local\\Temp\\db6dd598-db2c-4bbb-8f19-38e0acbbc701\\flet\\window_manager_plugin.dll',
   'BINARY'),
  ('flet\\bin\\flet\\screen_retriever_plugin.dll',
   'C:\\Users\\David '
   'Sanguano\\AppData\\Local\\Temp\\db6dd598-db2c-4bbb-8f19-38e0acbbc701\\flet\\screen_retriever_plugin.dll',
   'BINARY'),
  ('flet\\bin\\flet\\flutter_windows.dll',
   'C:\\Users\\David '
   'Sanguano\\AppData\\Local\\Temp\\db6dd598-db2c-4bbb-8f19-38e0acbbc701\\flet\\flutter_windows.dll',
   'BINARY'),
  ('flet\\bin\\flet\\window_to_front_plugin.dll',
   'C:\\Users\\David '
   'Sanguano\\AppData\\Local\\Temp\\db6dd598-db2c-4bbb-8f19-38e0acbbc701\\flet\\window_to_front_plugin.dll',
   'BINARY'),
  ('python311.dll',
   'C:\\Users\\David '
   'Sanguano\\AppData\\Local\\Programs\\Python\\Python311\\python311.dll',
   'BINARY'),
  ('pywin32_system32\\pywintypes311.dll',
   'C:\\Users\\David '
   'Sanguano\\Documents\\pokedex-flet\\venv\\Lib\\site-packages\\pywin32_system32\\pywintypes311.dll',
   'BINARY'),
  ('pywin32_system32\\pythoncom311.dll',
   'C:\\Users\\David '
   'Sanguano\\Documents\\pokedex-flet\\venv\\Lib\\site-packages\\pywin32_system32\\pythoncom311.dll',
   'BINARY'),
  ('_ctypes.pyd',
   'C:\\Users\\David '
   'Sanguano\\AppData\\Local\\Programs\\Python\\Python311\\DLLs\\_ctypes.pyd',
   'EXTENSION'),
  ('_decimal.pyd',
   'C:\\Users\\David '
   'Sanguano\\AppData\\Local\\Programs\\Python\\Python311\\DLLs\\_decimal.pyd',
   'EXTENSION'),
  ('unicodedata.pyd',
   'C:\\Users\\David '
   'Sanguano\\AppData\\Local\\Programs\\Python\\Python311\\DLLs\\unicodedata.pyd',
   'EXTENSION'),
  ('select.pyd',
   'C:\\Users\\David '
   'Sanguano\\AppData\\Local\\Programs\\Python\\Python311\\DLLs\\select.pyd',
   'EXTENSION'),
  ('_socket.pyd',
   'C:\\Users\\David '
   'Sanguano\\AppData\\Local\\Programs\\Python\\Python311\\DLLs\\_socket.pyd',
   'EXTENSION'),
  ('_lzma.pyd',
   'C:\\Users\\David '
   'Sanguano\\AppData\\Local\\Programs\\Python\\Python311\\DLLs\\_lzma.pyd',
   'EXTENSION'),
  ('_bz2.pyd',
   'C:\\Users\\David '
   'Sanguano\\AppData\\Local\\Programs\\Python\\Python311\\DLLs\\_bz2.pyd',
   'EXTENSION'),
  ('_hashlib.pyd',
   'C:\\Users\\David '
   'Sanguano\\AppData\\Local\\Programs\\Python\\Python311\\DLLs\\_hashlib.pyd',
   'EXTENSION'),
  ('win32\\win32trace.pyd',
   'C:\\Users\\David '
   'Sanguano\\Documents\\pokedex-flet\\venv\\Lib\\site-packages\\win32\\win32trace.pyd',
   'EXTENSION'),
  ('Pythonwin\\win32ui.pyd',
   'C:\\Users\\David '
   'Sanguano\\Documents\\pokedex-flet\\venv\\Lib\\site-packages\\Pythonwin\\win32ui.pyd',
   'EXTENSION'),
  ('win32\\_win32sysloader.pyd',
   'C:\\Users\\David '
   'Sanguano\\Documents\\pokedex-flet\\venv\\Lib\\site-packages\\win32\\_win32sysloader.pyd',
   'EXTENSION'),
  ('win32\\win32api.pyd',
   'C:\\Users\\David '
   'Sanguano\\Documents\\pokedex-flet\\venv\\Lib\\site-packages\\win32\\win32api.pyd',
   'EXTENSION'),
  ('markupsafe\\_speedups.cp311-win_amd64.pyd',
   'C:\\Users\\David '
   'Sanguano\\Documents\\pokedex-flet\\venv\\Lib\\site-packages\\markupsafe\\_speedups.cp311-win_amd64.pyd',
   'EXTENSION'),
  ('_ssl.pyd',
   'C:\\Users\\David '
   'Sanguano\\AppData\\Local\\Programs\\Python\\Python311\\DLLs\\_ssl.pyd',
   'EXTENSION'),
  ('_queue.pyd',
   'C:\\Users\\David '
   'Sanguano\\AppData\\Local\\Programs\\Python\\Python311\\DLLs\\_queue.pyd',
   'EXTENSION'),
  ('win32com\\shell\\shell.pyd',
   'C:\\Users\\David '
   'Sanguano\\Documents\\pokedex-flet\\venv\\Lib\\site-packages\\win32comext\\shell\\shell.pyd',
   'EXTENSION'),
  ('pyexpat.pyd',
   'C:\\Users\\David '
   'Sanguano\\AppData\\Local\\Programs\\Python\\Python311\\DLLs\\pyexpat.pyd',
   'EXTENSION'),
  ('_multiprocessing.pyd',
   'C:\\Users\\David '
   'Sanguano\\AppData\\Local\\Programs\\Python\\Python311\\DLLs\\_multiprocessing.pyd',
   'EXTENSION'),
  ('_overlapped.pyd',
   'C:\\Users\\David '
   'Sanguano\\AppData\\Local\\Programs\\Python\\Python311\\DLLs\\_overlapped.pyd',
   'EXTENSION'),
  ('_asyncio.pyd',
   'C:\\Users\\David '
   'Sanguano\\AppData\\Local\\Programs\\Python\\Python311\\DLLs\\_asyncio.pyd',
   'EXTENSION'),
  ('yarl\\_quoting_c.cp311-win_amd64.pyd',
   'C:\\Users\\David '
   'Sanguano\\Documents\\pokedex-flet\\venv\\Lib\\site-packages\\yarl\\_quoting_c.cp311-win_amd64.pyd',
   'EXTENSION'),
  ('multidict\\_multidict.cp311-win_amd64.pyd',
   'C:\\Users\\David '
   'Sanguano\\Documents\\pokedex-flet\\venv\\Lib\\site-packages\\multidict\\_multidict.cp311-win_amd64.pyd',
   'EXTENSION'),
  ('aiohttp\\_http_writer.cp311-win_amd64.pyd',
   'C:\\Users\\David '
   'Sanguano\\Documents\\pokedex-flet\\venv\\Lib\\site-packages\\aiohttp\\_http_writer.cp311-win_amd64.pyd',
   'EXTENSION'),
  ('aiohttp\\_http_parser.cp311-win_amd64.pyd',
   'C:\\Users\\David '
   'Sanguano\\Documents\\pokedex-flet\\venv\\Lib\\site-packages\\aiohttp\\_http_parser.cp311-win_amd64.pyd',
   'EXTENSION'),
  ('frozenlist\\_frozenlist.cp311-win_amd64.pyd',
   'C:\\Users\\David '
   'Sanguano\\Documents\\pokedex-flet\\venv\\Lib\\site-packages\\frozenlist\\_frozenlist.cp311-win_amd64.pyd',
   'EXTENSION'),
  ('aiohttp\\_helpers.cp311-win_amd64.pyd',
   'C:\\Users\\David '
   'Sanguano\\Documents\\pokedex-flet\\venv\\Lib\\site-packages\\aiohttp\\_helpers.cp311-win_amd64.pyd',
   'EXTENSION'),
  ('charset_normalizer\\md__mypyc.cp311-win_amd64.pyd',
   'C:\\Users\\David '
   'Sanguano\\Documents\\pokedex-flet\\venv\\Lib\\site-packages\\charset_normalizer\\md__mypyc.cp311-win_amd64.pyd',
   'EXTENSION'),
  ('charset_normalizer\\md.cp311-win_amd64.pyd',
   'C:\\Users\\David '
   'Sanguano\\Documents\\pokedex-flet\\venv\\Lib\\site-packages\\charset_normalizer\\md.cp311-win_amd64.pyd',
   'EXTENSION'),
  ('aiohttp\\_websocket.cp311-win_amd64.pyd',
   'C:\\Users\\David '
   'Sanguano\\Documents\\pokedex-flet\\venv\\Lib\\site-packages\\aiohttp\\_websocket.cp311-win_amd64.pyd',
   'EXTENSION'),
  ('_uuid.pyd',
   'C:\\Users\\David '
   'Sanguano\\AppData\\Local\\Programs\\Python\\Python311\\DLLs\\_uuid.pyd',
   'EXTENSION'),
  ('websockets\\speedups.cp311-win_amd64.pyd',
   'C:\\Users\\David '
   'Sanguano\\Documents\\pokedex-flet\\venv\\Lib\\site-packages\\websockets\\speedups.cp311-win_amd64.pyd',
   'EXTENSION'),
  ('PIL\\_imagingft.cp311-win_amd64.pyd',
   'C:\\Users\\David '
   'Sanguano\\Documents\\pokedex-flet\\venv\\Lib\\site-packages\\PIL\\_imagingft.cp311-win_amd64.pyd',
   'EXTENSION'),
  ('PIL\\_webp.cp311-win_amd64.pyd',
   'C:\\Users\\David '
   'Sanguano\\Documents\\pokedex-flet\\venv\\Lib\\site-packages\\PIL\\_webp.cp311-win_amd64.pyd',
   'EXTENSION'),
  ('PIL\\_imagingtk.cp311-win_amd64.pyd',
   'C:\\Users\\David '
   'Sanguano\\Documents\\pokedex-flet\\venv\\Lib\\site-packages\\PIL\\_imagingtk.cp311-win_amd64.pyd',
   'EXTENSION'),
  ('PIL\\_imagingcms.cp311-win_amd64.pyd',
   'C:\\Users\\David '
   'Sanguano\\Documents\\pokedex-flet\\venv\\Lib\\site-packages\\PIL\\_imagingcms.cp311-win_amd64.pyd',
   'EXTENSION'),
  ('PIL\\_imaging.cp311-win_amd64.pyd',
   'C:\\Users\\David '
   'Sanguano\\Documents\\pokedex-flet\\venv\\Lib\\site-packages\\PIL\\_imaging.cp311-win_amd64.pyd',
   'EXTENSION'),
  ('MSVCP140.dll',
   'C:\\Users\\David '
   'Sanguano\\AppData\\Local\\Temp\\db6dd598-db2c-4bbb-8f19-38e0acbbc701\\flet\\MSVCP140.dll',
   'BINARY'),
  ('VCRUNTIME140.dll',
   'C:\\Users\\David '
   'Sanguano\\AppData\\Local\\Temp\\db6dd598-db2c-4bbb-8f19-38e0acbbc701\\flet\\VCRUNTIME140.dll',
   'BINARY'),
  ('VCRUNTIME140_1.dll',
   'C:\\Users\\David '
   'Sanguano\\AppData\\Local\\Temp\\db6dd598-db2c-4bbb-8f19-38e0acbbc701\\flet\\VCRUNTIME140_1.dll',
   'BINARY'),
  ('flutter_windows.dll',
   'C:\\Users\\David '
   'Sanguano\\AppData\\Local\\Temp\\db6dd598-db2c-4bbb-8f19-38e0acbbc701\\flet\\flutter_windows.dll',
   'BINARY'),
  ('window_to_front_plugin.dll',
   'C:\\Users\\David '
   'Sanguano\\AppData\\Local\\Temp\\db6dd598-db2c-4bbb-8f19-38e0acbbc701\\flet\\window_to_front_plugin.dll',
   'BINARY'),
  ('screen_retriever_plugin.dll',
   'C:\\Users\\David '
   'Sanguano\\AppData\\Local\\Temp\\db6dd598-db2c-4bbb-8f19-38e0acbbc701\\flet\\screen_retriever_plugin.dll',
   'BINARY'),
  ('audioplayers_windows_plugin.dll',
   'C:\\Users\\David '
   'Sanguano\\AppData\\Local\\Temp\\db6dd598-db2c-4bbb-8f19-38e0acbbc701\\flet\\audioplayers_windows_plugin.dll',
   'BINARY'),
  ('window_manager_plugin.dll',
   'C:\\Users\\David '
   'Sanguano\\AppData\\Local\\Temp\\db6dd598-db2c-4bbb-8f19-38e0acbbc701\\flet\\window_manager_plugin.dll',
   'BINARY'),
  ('url_launcher_windows_plugin.dll',
   'C:\\Users\\David '
   'Sanguano\\AppData\\Local\\Temp\\db6dd598-db2c-4bbb-8f19-38e0acbbc701\\flet\\url_launcher_windows_plugin.dll',
   'BINARY'),
  ('libffi-8.dll',
   'C:\\Users\\David '
   'Sanguano\\AppData\\Local\\Programs\\Python\\Python311\\DLLs\\libffi-8.dll',
   'BINARY'),
  ('libcrypto-1_1.dll',
   'C:\\Users\\David '
   'Sanguano\\AppData\\Local\\Programs\\Python\\Python311\\DLLs\\libcrypto-1_1.dll',
   'BINARY'),
  ('Pythonwin\\mfc140u.dll',
   'C:\\Users\\David '
   'Sanguano\\Documents\\pokedex-flet\\venv\\Lib\\site-packages\\Pythonwin\\mfc140u.dll',
   'BINARY'),
  ('libssl-1_1.dll',
   'C:\\Users\\David '
   'Sanguano\\AppData\\Local\\Programs\\Python\\Python311\\DLLs\\libssl-1_1.dll',
   'BINARY'),
  ('base_library.zip',
   'C:\\Users\\David '
   'Sanguano\\Documents\\pokedex-flet\\build\\pokedex\\base_library.zip',
   'DATA'),
  ('flet\\bin\\flet\\data\\icudtl.dat',
   'C:\\Users\\David '
   'Sanguano\\AppData\\Local\\Temp\\db6dd598-db2c-4bbb-8f19-38e0acbbc701\\flet\\data\\icudtl.dat',
   'DATA'),
  ('flet\\bin\\flet\\data\\flutter_assets\\AssetManifest.bin',
   'C:\\Users\\David '
   'Sanguano\\AppData\\Local\\Temp\\db6dd598-db2c-4bbb-8f19-38e0acbbc701\\flet\\data\\flutter_assets\\AssetManifest.bin',
   'DATA'),
  ('flet\\bin\\flet\\data\\app.so',
   'C:\\Users\\David '
   'Sanguano\\AppData\\Local\\Temp\\db6dd598-db2c-4bbb-8f19-38e0acbbc701\\flet\\data\\app.so',
   'DATA'),
  ('flet\\bin\\flet\\data\\flutter_assets\\AssetManifest.json',
   'C:\\Users\\David '
   'Sanguano\\AppData\\Local\\Temp\\db6dd598-db2c-4bbb-8f19-38e0acbbc701\\flet\\data\\flutter_assets\\AssetManifest.json',
   'DATA'),
  ('flet\\bin\\flet\\data\\flutter_assets\\shaders\\ink_sparkle.frag',
   'C:\\Users\\David '
   'Sanguano\\AppData\\Local\\Temp\\db6dd598-db2c-4bbb-8f19-38e0acbbc701\\flet\\data\\flutter_assets\\shaders\\ink_sparkle.frag',
   'DATA'),
  ('flet\\bin\\flet\\data\\flutter_assets\\packages\\window_manager\\images\\ic_chrome_minimize.png',
   'C:\\Users\\David '
   'Sanguano\\AppData\\Local\\Temp\\db6dd598-db2c-4bbb-8f19-38e0acbbc701\\flet\\data\\flutter_assets\\packages\\window_manager\\images\\ic_chrome_minimize.png',
   'DATA'),
  ('flet\\bin\\flet\\data\\flutter_assets\\packages\\window_manager\\images\\ic_chrome_unmaximize.png',
   'C:\\Users\\David '
   'Sanguano\\AppData\\Local\\Temp\\db6dd598-db2c-4bbb-8f19-38e0acbbc701\\flet\\data\\flutter_assets\\packages\\window_manager\\images\\ic_chrome_unmaximize.png',
   'DATA'),
  ('flet\\bin\\flet\\data\\flutter_assets\\NOTICES.Z',
   'C:\\Users\\David '
   'Sanguano\\AppData\\Local\\Temp\\db6dd598-db2c-4bbb-8f19-38e0acbbc701\\flet\\data\\flutter_assets\\NOTICES.Z',
   'DATA'),
  ('flet\\bin\\flet\\data\\flutter_assets\\fonts\\MaterialIcons-Regular.otf',
   'C:\\Users\\David '
   'Sanguano\\AppData\\Local\\Temp\\db6dd598-db2c-4bbb-8f19-38e0acbbc701\\flet\\data\\flutter_assets\\fonts\\MaterialIcons-Regular.otf',
   'DATA'),
  ('flet\\bin\\flet\\data\\flutter_assets\\packages\\window_manager\\images\\ic_chrome_close.png',
   'C:\\Users\\David '
   'Sanguano\\AppData\\Local\\Temp\\db6dd598-db2c-4bbb-8f19-38e0acbbc701\\flet\\data\\flutter_assets\\packages\\window_manager\\images\\ic_chrome_close.png',
   'DATA'),
  ('flet\\bin\\flet\\data\\flutter_assets\\packages\\window_manager\\images\\ic_chrome_maximize.png',
   'C:\\Users\\David '
   'Sanguano\\AppData\\Local\\Temp\\db6dd598-db2c-4bbb-8f19-38e0acbbc701\\flet\\data\\flutter_assets\\packages\\window_manager\\images\\ic_chrome_maximize.png',
   'DATA'),
  ('flet\\bin\\flet\\data\\flutter_assets\\FontManifest.json',
   'C:\\Users\\David '
   'Sanguano\\AppData\\Local\\Temp\\db6dd598-db2c-4bbb-8f19-38e0acbbc701\\flet\\data\\flutter_assets\\FontManifest.json',
   'DATA'),
  ('certifi\\cacert.pem',
   'C:\\Users\\David '
   'Sanguano\\Documents\\pokedex-flet\\venv\\Lib\\site-packages\\certifi\\cacert.pem',
   'DATA'),
  ('certifi\\py.typed',
   'C:\\Users\\David '
   'Sanguano\\Documents\\pokedex-flet\\venv\\Lib\\site-packages\\certifi\\py.typed',
   'DATA'),
  ('websockets-11.0.3.dist-info\\top_level.txt',
   'C:\\Users\\David '
   'Sanguano\\Documents\\pokedex-flet\\venv\\Lib\\site-packages\\websockets-11.0.3.dist-info\\top_level.txt',
   'DATA'),
  ('websockets-11.0.3.dist-info\\LICENSE',
   'C:\\Users\\David '
   'Sanguano\\Documents\\pokedex-flet\\venv\\Lib\\site-packages\\websockets-11.0.3.dist-info\\LICENSE',
   'DATA'),
  ('websockets-11.0.3.dist-info\\METADATA',
   'C:\\Users\\David '
   'Sanguano\\Documents\\pokedex-flet\\venv\\Lib\\site-packages\\websockets-11.0.3.dist-info\\METADATA',
   'DATA'),
  ('attrs-23.1.0.dist-info\\INSTALLER',
   'C:\\Users\\David '
   'Sanguano\\Documents\\pokedex-flet\\venv\\Lib\\site-packages\\attrs-23.1.0.dist-info\\INSTALLER',
   'DATA'),
  ('websockets-11.0.3.dist-info\\WHEEL',
   'C:\\Users\\David '
   'Sanguano\\Documents\\pokedex-flet\\venv\\Lib\\site-packages\\websockets-11.0.3.dist-info\\WHEEL',
   'DATA'),
  ('websockets-11.0.3.dist-info\\INSTALLER',
   'C:\\Users\\David '
   'Sanguano\\Documents\\pokedex-flet\\venv\\Lib\\site-packages\\websockets-11.0.3.dist-info\\INSTALLER',
   'DATA'),
  ('attrs-23.1.0.dist-info\\licenses\\LICENSE',
   'C:\\Users\\David '
   'Sanguano\\Documents\\pokedex-flet\\venv\\Lib\\site-packages\\attrs-23.1.0.dist-info\\licenses\\LICENSE',
   'DATA'),
  ('attrs-23.1.0.dist-info\\METADATA',
   'C:\\Users\\David '
   'Sanguano\\Documents\\pokedex-flet\\venv\\Lib\\site-packages\\attrs-23.1.0.dist-info\\METADATA',
   'DATA'),
  ('attrs-23.1.0.dist-info\\WHEEL',
   'C:\\Users\\David '
   'Sanguano\\Documents\\pokedex-flet\\venv\\Lib\\site-packages\\attrs-23.1.0.dist-info\\WHEEL',
   'DATA'),
  ('websockets-11.0.3.dist-info\\RECORD',
   'C:\\Users\\David '
   'Sanguano\\Documents\\pokedex-flet\\venv\\Lib\\site-packages\\websockets-11.0.3.dist-info\\RECORD',
   'DATA'),
  ('attrs-23.1.0.dist-info\\RECORD',
   'C:\\Users\\David '
   'Sanguano\\Documents\\pokedex-flet\\venv\\Lib\\site-packages\\attrs-23.1.0.dist-info\\RECORD',
   'DATA')],
 'python311.dll',
 False,
 False,
 False,
 [],
 None,
 None,
 None)
